ST558 - Final Project: EDA
…
ℹ Use `spec()` to retrieve the full column specification for this data.
ℹ Specify the column types or set `show_col_types = FALSE` to quiet this message.

#checking on missing values
sum(is.na(diabetes_data))

[1] 0

#getting an idea of the data set
diabetes_data

# A tibble: 253,680 × 22
   Diabetes_binary HighBP  HighChol CholCheck   BMI Smoker Stroke
   <fct>           <fct>   <fct>    <fct>     <dbl> <fct>  <fct> 
 1 No              Yes HBP Yes HiC  Yes CC       40 Yes Sm No St 
 2 No              No HPB  No HiC   No CC        25 Yes Sm No St 
 3 No              Yes HBP Yes HiC  Yes CC       28 No Sm  No St 
 4 No              Yes HBP No HiC   Yes CC       27 No Sm  No St 
 5 No              Yes HBP Yes HiC  Yes CC       24 No Sm  No St 
 6 No              Yes HBP Yes HiC  Yes CC       25 Yes Sm No St 
 7 No              Yes HBP No HiC   Yes CC       30 Yes Sm No St 
 8 No              Yes HBP Yes HiC  Yes CC       25 Yes Sm No St 
 9 Pre/Yes         Yes HBP Yes HiC  Yes CC       30 Yes Sm No St 
10 No              No HPB  No HiC   Yes CC       24 No Sm  No St 
# ℹ 253,670 more rows
# ℹ 15 more variables: HeartDiseaseorAttack <fct>, PhysActivity <fct>,
#   Fruits <fct>, Veggies <fct>, HvyAlcoholConsump <fct>, AnyHealthcare <fct>,
#   NoDocbcCost <fct>, GenHlth <fct>, MentHlth <dbl>, PhysHlth <dbl>,
#   DiffWalk <fct>, Sex <fct>, Age <fct>, Education <fct>, Income <fct>

Summaries:

#getting an idea of the count of different levels, this can also provide a general idea of how likely it is for someone to have diabetes under certain conditions; this is further shown through the plots
diabetes_data |>
  group_by(Diabetes_binary, MentHlth, AnyHealthcare, NoDocbcCost) |>
  tally()

# A tibble: 223 × 5
# Groups:   Diabetes_binary, MentHlth, AnyHealthcare [115]
   Diabetes_binary MentHlth AnyHealthcare NoDocbcCost      n
   <fct>              <dbl> <fct>         <fct>        <int>
 1 No                     0 No HC         No Doc        4935
 2 No                     0 No HC         Yes Doc       1834
 3 No                     0 Yes HC        No Doc      139351
 4 No                     0 Yes HC        Yes Doc       6157
 5 No                     1 No HC         No Doc         229
 6 No                     1 No HC         Yes Doc        129
 7 No                     1 Yes HC        No Doc        6882
 8 No                     1 Yes HC        Yes Doc        486
 9 No                     2 No HC         No Doc         363
10 No                     2 No HC         Yes Doc        192
# ℹ 213 more rows
…
